d3mIndex,WAGE
0,5.268473185593233
2,8.018591118265308
6,7.647228378059419
9,7.624380315761897
10,10.706159755241899
11,11.74629082563997
15,10.148912401682075
18,7.672388022890374
22,7.624380315761897
30,9.10609469017281
33,7.587658630611031
39,9.745386077008046
46,11.475571113230378
55,7.155603806678354
63,6.514385881169661
68,9.752794771045417
70,6.331597551833161
72,7.249778771976175
73,5.444731560738807
75,8.215671757964923
76,9.773965326697438
77,10.180249825685944
78,7.244962534637882
79,12.955539614157713
82,11.066970583235962
84,10.474707471540267
86,10.22825753281442
89,12.565289046656227
90,7.913065082893164
93,6.001805434186966
101,6.826513273825318
104,8.462014871237281
117,10.267901480611936
124,6.777340845947638
131,8.193894428117293
132,7.767324942201171
137,8.6790135480915
140,7.694157590241737
148,10.194734128652504
149,8.916877234876598
153,8.15995831094612
167,13.807162753158835
172,10.65040489408944
177,12.621361038637955
180,15.808100804440242
184,14.063431465251352
185,12.587837634476037
192,8.746937271100698
208,10.403954955363595
210,14.493325980550354
211,8.104075278601409
220,8.415993015801451
222,8.590341260359846
227,6.972967523894464
228,4.963100004232235
229,4.86816308492144
231,5.879260501289679
238,9.357313157689848
244,8.138553748056914
248,11.448185592253674
261,7.252125650464906
271,10.734055634805317
272,5.112389506436237
280,6.292460033565247
287,7.252125650464906
301,5.443799580431776
302,8.52557901991178
310,5.147321211491882
321,6.974825968268473
329,7.719861004540537
336,6.901519030760937
346,6.348831520484836
348,3.80728276863477
349,7.721803719569683
356,5.572399509912746
362,6.280898013705489
364,6.583496926280985
365,5.367236562465866
374,7.662509990463596
376,8.434828167414212
394,7.016589722568936
403,9.698713544119855
406,6.3157257241647144
411,8.569159866405846
418,5.826990715359763
422,4.7656602351326605
425,5.42830802168924
441,11.19007643718123
449,9.86693785396038
452,11.762915578919504
461,9.285752811856117
464,9.70728356782416
476,7.958992730817487
478,8.833965299553183
490,11.630454497853986
494,8.877610004943508
500,12.948717293440383
502,12.244481567914002
507,12.577895183377985
516,11.479146112083754
520,14.16231122473131
521,13.41872801984232
522,13.859712312155816
527,9.199056222223714
529,12.171995592160734
533,14.8211544986582
