d3mIndex,area_target
0,0.6197693299459333
1,0.30570817335586375
2,0.29489280222097014
3,0.16126272029318156
4,0.020182839557870924
5,0.67230887198259
6,0.7144002868418662
7,0.15808134954066244
8,1.118334785516147
9,0.7905048573122907
10,1.0299268748112644
11,0.6098428919043235
12,0.4048233564019582
13,0.9096989957820557
14,1.3410604226698086
15,1.105720975635088
16,0.1442134159053442
17,0.7575570572775889
18,0.4091497024119993
19,0.7622459503281566
20,1.0937134836594846
21,0.9556531287360925
22,0.022947468502374058
23,0.7830415557672264
24,0.9594838640948915
25,0.6331613192016101
26,1.145979257051437
27,0.8012338107168663
28,1.2923535654847726
29,0.9792067420258201
30,0.9473517830097593
31,1.2396164210443787
32,0.5309389159017682
33,0.6746497130339164
34,0.7979821497217856
35,0.7688668577535156
36,0.476369436999898
37,0.7020057608380142
38,0.2729441019076859
39,0.20465557016828706
40,0.5671796409863603
41,1.050828714340157
42,0.7993992634460377
43,1.0083129645476796
44,1.1121182915654373
45,1.0345730634671997
46,0.5912100109112118
47,0.6477919589006826
48,0.259922053434101
49,0.8406960322166545
50,1.1585286343645187
51,0.3849583836583148
52,0.6966448930132145
53,0.6966448930132145
54,0.40536047362624517
55,1.1815766025571666
56,0.8088555241870777
57,0.1427946828280804
58,0.5300970420315356
59,-0.019627995642304552
60,0.18341256831925756
61,0.4821086928373375
62,0.30936487255633194
63,0.28968137226609014
64,0.500295980075994
65,0.3967143084853888
66,0.8559847482472888
67,0.8690152879445583
68,0.9481410956244459
69,0.03255878304097115
70,0.38587051317606325
71,0.7968049554572681
72,0.4016818370144122
73,0.7587562729642202
74,1.242333310938712
75,0.4339467408738495
76,0.13356542069972488
77,0.24706360954863194
78,-0.11154022805265884
79,0.5422952481238054
80,0.4100692833798928
81,-0.020002038091235907
82,0.24496650273479204
83,0.09144826692862174
84,0.1381962595139974
85,0.612778468660382
86,0.7182758925083783
87,0.5916523014236489
88,0.7819265809212866
89,0.19932020229165304
90,0.6082475605391312
91,0.22568815149410093
92,0.7059227711907795
93,0.6924615210563211
94,0.7855692647311573
95,0.7005975922703686
96,0.01962205410686757
97,0.019582601618357454
98,0.0918254026857177
99,0.4654687486803095
100,0.4654687486803095
101,0.38719514499076557
102,1.0458120917214186
103,1.5263230940306012
104,0.7533875571027341
105,0.3980974282277625
106,0.019904935985840866
107,0.4974658262374839
108,0.8463446829748434
109,1.0124156020084036
110,0.5248499415677637
111,-0.12632850529632977
112,0.6583695097014464
113,0.632872989871569
114,0.41400185799911715
115,0.019827021217770024
116,0.2738703173926441
117,0.01028411372550131
118,0.17181647043207104
119,0.1404475327486855
120,-0.019994991513172078
121,0.5476292897349133
122,0.8714687523564201
123,0.5352319477627742
124,0.683900473871463
125,0.399543791944712
126,-0.12132684985025455
127,0.47819692146419435
128,0.0518335077416191
129,0.3445079575278751
130,0.019583422326460043
131,0.07989147465008262
132,0.18140416961806738
133,0.6603113786401331
134,-0.31055485005650774
135,0.19820819375210352
136,0.09514081755191661
137,0.23528138392338915
138,0.3802250844288534
139,1.1174193961632466
140,1.1076482612918128
141,0.40357064541366094
142,0.9816105601096826
143,0.2887440576600855
144,0.9709594621341714
145,0.9054888405224092
146,0.6143528518168179
147,0.9398726300996479
148,0.6528619191376718
149,1.1001932946856352
150,0.6364705942099248
151,0.5531812505866296
152,0.3010854931016179
153,1.0005987517103094
154,1.336238344679718
155,0.33505179837091525
156,1.6304470885829785
157,0.4473681070712232
158,1.1151586874124055
159,1.145979257051437
160,0.2648372674967109
161,0.8092009523541797
162,0.7696291085651427
163,0.7962811576612785
164,0.6897243881006835
165,0.6883839375400039
166,0.39941687648926805
167,0.8460091580247281
168,0.7500504253107939
169,0.5753722960470103
170,1.1162867268744787
171,0.6151476937376872
172,0.7664063855582246
173,1.087100703163094
174,0.45839549914934097
175,0.8393197580926334
176,1.0685959520863175
177,0.5382163942862688
178,0.9748770429464356
179,0.6827412877147758
180,1.1969954978700552
181,0.6415278446028395
182,0.3621672652397291
183,0.6591086904816722
184,0.7910059295452052
185,1.0717438578177174
186,0.4352017050302128
187,0.9058532700683564
188,0.18399480679203428
189,0.35111708634170113
190,0.13680848476709395
191,0.9007081595617601
192,0.803007069908151
193,1.3152693348417732
194,0.803007069908151
195,0.9676784911415593
196,1.0685959520863175
197,1.0542848176859674
198,0.9653179447421114
199,0.7229104547468939
200,0.985815108214244
201,0.13646215006741913
202,0.521584607428561
203,0.5730998333281293
204,0.02002181356527455
205,0.9911037361948781
206,0.8965349530582991
207,0.7926574039773919
208,1.1179836419879159
209,1.112179406326748
210,0.6454080857719149
211,0.4784128497166422
212,0.943434527262411
213,0.5255904654989135
214,0.3639780470220747
215,0.3639780470220747
216,0.7574525357629177
217,1.016864836638166
218,1.0964271247815351
219,0.21389398053174102
220,0.3948588544058915
221,0.6439187141297483
222,0.5633483904293369
223,0.3302359492527881
224,1.043721497121917
225,1.4122390410077785
226,0.3461492902287423
227,0.6356297094977387
228,1.2951273847370015
229,0.5115988679427227
230,1.5957029299260121
231,1.244080911678215
232,1.085838355603593
233,1.0914506855674517
234,0.9967805064115225
235,0.8101434878718964
236,0.6183373066482314
237,0.5333944677154087
238,1.1486311485051888
239,0.01999448183833863
240,0.15937130181420434
241,0.21983539178970668
242,0.7224545846785255
243,0.3016319140061997
244,1.358448599756776
245,0.8454650519286309
246,1.0665316902286304
247,0.7300577433020853
248,1.2240499954934811
249,0.489474776519204
250,1.2034053743759852
251,1.0206325981371243
252,0.8229728295373634
253,0.5108628720842859
254,0.4240131670543018
255,0.6359353345135261
256,0.7597487705599536
257,0.5278445280049926
258,0.27084271531892934
259,0.7924161113873665
260,1.299482138563508
261,0.626945048482687
262,0.8770523614880481
263,0.4881896918747828
264,0.8571370036651582
265,1.0422012085089385
266,0.5191351467097742
267,0.7731878227686078
268,0.5091747008571158
269,0.7314267204927969
270,0.5076350859472202
271,0.7112593947103091
272,0.8625344096451134
273,1.6917278084967617
274,1.8341067452684674
275,1.154480145459298
276,2.218090656404963
277,1.8952350611021054
278,2.218090656404963
279,2.218090656404963
280,1.1859552583258932
281,1.8905452211807305
282,0.7652228913624937
283,0.33561626730452965
284,1.350072853648996
285,1.1676888868295354
286,0.5813584984565797
287,0.6920974254456187
288,0.757737039619726
289,0.7658998067706291
290,0.6442318354307816
291,1.0078781584905174
292,0.5978824173981576
293,1.0319121584359245
294,0.6123390039882407
295,0.4752163391508204
296,0.5050293589471461
297,0.3915850223087399
298,0.8704717859327074
299,0.02014984368717032
300,0.7666889692075347
301,0.7880311036398857
302,0.019763406544429207
303,0.019763406544429207
304,0.5305237080939871
305,0.8335385162958574
306,1.0564225276073107
307,0.6780795658061506
308,1.015617637961407
309,1.3506436256366245
310,1.051377452604453
311,0.86452555731339
312,0.4536763147015704
313,1.2853089516883536
314,1.1639334400905534
315,0.8516933923449326
316,1.1713303167324236
317,1.303013936721602
318,0.9745897534285823
319,1.4030286905496754
320,1.3049726694506592
321,1.1945277724192176
322,1.0303294838526815
323,0.454683745056211
324,0.5424640027405241
325,1.2321449658079398
326,1.1542696297602986
327,0.9130576620031196
328,0.841770194713387
329,1.0997252914436184
330,0.6032716238243849
331,1.2137613266720897
332,1.0805911728335071
333,0.9978358057318006
334,1.209706082432003
335,0.31031785399209133
336,0.9083904054835638
337,0.8793513705938133
338,1.0915913650330848
339,1.2374446944415964
340,1.0408168891488396
341,0.8661320785277227
342,0.8457421089985017
343,1.1479156392773342
344,0.8947824592210581
345,0.800643516617811
346,1.2001064048367103
347,0.7796568045165125
348,0.6358211035999605
349,0.8355466381815434
350,0.7796568045165125
351,1.3202293286500488
352,0.9430285657987807
353,0.8393191720048173
354,0.7682314050419482
355,1.2801113685698455
356,1.2801113685698455
357,0.7104141696183562
358,0.7931011947085208
359,1.0833930897334043
360,0.8206816593533306
361,0.8793052985101797
362,0.6428868066343739
363,0.6789057843607721
364,1.0038408260420613
365,0.9462523898250047
366,1.1729937322829729
367,1.1034373386647474
368,0.9632678176975055
369,1.1990039397022851
370,1.3243816834580096
371,0.5123187519295597
372,0.05208602962289954
373,0.7667520935281122
374,0.8400587346200028
375,0.8984963014695895
376,0.6886833118985938
377,0.7094035053825656
378,0.5334906947702075
379,0.019662860421609585
380,1.1895715109522347
381,0.4273654386434934
382,1.3504448586203512
383,0.5970556681690362
384,1.3179798177335595
385,0.8897262944794257
386,0.7270283453599297
387,0.22881044387833827
388,1.1105086332284517
389,0.9392985410056733
390,1.3212318012699735
391,0.885939901221182
392,1.247081452128253
393,0.6590478101806421
394,0.5931453926548413
395,0.19611030434646481
396,0.8302374172495884
397,0.6533130049375333
398,0.7425798589850081
399,0.8047144673214092
400,0.8047144673214092
401,0.697039567684818
402,1.0348807559739743
403,0.7720212000795552
404,1.2372083458811574
405,1.0360051356258002
406,1.156303590166098
407,0.27978721471443113
408,1.204255036742923
409,1.065566866061919
410,0.09823103365852093
411,1.681843604792931
412,1.1863703600585667
413,0.9448158427852003
414,0.9534986984821143
415,1.2761423549768771
416,1.0242277637045607
417,0.314810333981543
418,1.3423813892764036
419,0.9991135170704503
420,1.1576584871098454
421,1.8126230968743875
422,1.5409750620599856
423,0.8582070700064427
424,1.2758430835143573
425,0.41780963397121884
426,0.6405033178294549
427,1.3996680805408992
428,1.0769238021089511
429,0.5292173730279071
430,1.1469382561032564
431,0.7531494643822072
432,1.1668050900937106
433,1.0893110913798976
434,1.0233356996951821
435,0.6591895089212918
436,1.0384644325625698
437,0.4675909918858164
438,1.0654653660272981
439,0.6028774167468105
440,1.1198828113218788
441,1.0485000194183496
442,0.4320523547866245
443,0.4954357797954649
444,1.2165198780119855
445,0.020353345952487834
446,0.3358336385223696
447,0.5892525870629244
448,0.8629568697613033
449,0.662442302878544
450,0.9938607443736057
451,0.5365478439812265
452,0.651810048060613
453,0.5751285336502219
454,0.29061445336101766
455,0.49123698603504257
456,0.8136672205837346
457,0.9231403118208759
458,0.8260761871413473
459,1.102047160539853
460,0.884334001493617
461,0.8260761871413473
462,1.4576318678017515
463,1.2587966996135511
464,1.286992081934181
465,0.2869766693511754
466,0.6195009904997874
467,0.22307994799880715
468,0.12780012866856694
469,0.9258166879584366
470,0.3949322916366421
471,0.1310125665608599
472,0.5683168214211537
473,0.7391413734046006
474,0.6635983331216649
475,1.181919929950368
476,0.7451203054623728
477,0.7843416882552569
478,0.535763687780028
479,0.909143805172906
480,1.1655667979914615
481,1.164525056873614
482,0.5659892949062494
483,1.1690988540368228
484,1.3543671081800657
485,1.5485859930991648
486,1.0455031866030224
487,1.0519130482767247
488,0.9419276355087343
489,0.7343131404534642
490,1.3302254745716335
491,1.4486630221510395
492,1.0992833616201731
493,0.9249030067629632
494,1.2308446521360195
495,0.7842519761248014
496,1.471516320580502
497,1.1718027629472971
498,1.446858963552761
499,1.9277843474190932
500,0.2523423739865317
501,0.020000595273246602
502,0.5690295474474645
503,1.5698459650664653
504,1.2236110243588736
505,0.465446431566654
506,0.6430633757517874
507,1.2155101573135578
508,0.4489584723884439
509,0.43939994225620765
510,0.6508674099939141
511,0.4947087337504108
512,0.3396011691659382
513,0.8819651660981089
514,0.7788967381828503
515,1.0307044222970525
516,0.4195901191126251
