d3mIndex,percent_return_next_dividend_target
0,0.7195170847209725
1,0.6649032775425101
2,0.765195661092477
3,0.8563530688182972
4,0.8343842452146185
5,0.8339171044780106
6,0.8562993035423129
7,0.8402682139870964
8,0.8049770064521502
9,0.8477811924149005
10,0.8809674648221317
11,0.8668358080099969
12,0.8284356907561675
13,0.8171498531172603
14,0.7807797526433643
15,0.788992503868162
16,0.8652973235190464
17,0.7812138954666887
18,0.780691138504375
19,0.804231343953169
20,0.8063967357696167
21,0.8049968351107438
22,0.799544907724024
23,0.7865613096275754
24,0.6674531737478733
25,0.712034135370452
26,0.6878119673565614
27,0.7111941660747894
28,0.6988721519648264
29,0.7450550845937889
30,0.7397857894559425
31,0.7117326390481873
32,0.7039117790744197
33,0.7024004780300166
34,0.7330526685715534
35,0.7022930944786311
36,0.18691657462116162
37,-0.1122585652138729
38,0.032480546840729096
39,-0.005090618613096898
40,0.11733976316568684
41,0.22149363642326625
42,0.3686041145180951
43,0.3449449890713755
44,0.30860030276213524
45,0.22784222285143318
46,0.13260242045235937
47,0.22487290674112193
48,0.5939940084985834
49,0.6141233996507891
50,0.6705848555484073
51,0.6339499132211248
52,0.6281344614068703
53,0.5938529376392703
54,0.5792043909286885
55,0.5699792502822634
56,0.5563946591737868
57,0.5529761041292787
58,0.5207040147245565
59,0.5433419220092324
60,0.7540091453218369
61,0.712072945310342
62,0.7744973879215815
63,0.7717978294228355
64,0.5428790237668563
65,0.26041660625427104
66,0.304223796088033
67,0.6031575376569827
68,0.6268254315492054
69,0.5936745304399612
70,0.545771336463142
71,0.5662250991266078
72,0.618566338743173
73,0.6276697253896821
74,0.6222568768508908
75,0.6450568886094428
76,0.5687101489476947
77,0.6152149594488595
78,0.6348476676418694
79,0.6040345172452244
80,0.5657690952709901
81,0.5837818418351304
82,0.5617085925190551
83,0.5685025763473444
84,0.7961213307774877
85,0.7634003079928589
86,0.8065932507075679
87,0.8182316443070209
88,0.7829911019497352
89,0.7767665216329771
90,0.7774294318527362
91,0.7738588728829588
92,0.7637315617763958
93,0.772649764647092
94,0.779371551737216
95,0.791327170352895
96,0.919193697876843
97,0.9676315005287873
98,0.9464633504706934
99,0.9918204186873831
100,0.9931608692784918
101,0.9066206871301367
102,0.9201031241893273
103,0.9345325804535056
104,0.8977502113206751
105,0.881800352671181
106,0.931204271945311
107,0.8849048360072531
108,0.7467624989892444
109,0.7431981292893788
110,0.6111322249035774
111,0.5176780719580663
112,0.6269378219925399
113,0.673447801547881
114,0.7744826963157648
115,0.7254605040949664
116,0.6973252295097532
117,0.6516154555872562
118,0.5393315227510433
119,0.637492338607684
120,0.8535170677050408
121,0.8468266735355406
122,0.8400223172632308
123,0.8083079862764914
124,0.834285351094453
125,0.8520002047474509
126,0.7709993590648377
127,0.801597791759002
128,0.7959514338275675
129,0.8271172075088716
130,0.867540489618658
131,0.8436741771607491
132,0.7693345568900791
133,0.7861814394959
134,0.7499128373910148
135,0.7870879016991558
136,0.7644549082158116
137,0.7530573649939567
138,0.6738310557961954
139,0.6624615109389482
140,0.6514995171150193
141,0.7347433945630876
142,0.7827069837950436
143,0.7401901565904402
144,0.42233034311950485
145,0.4242927553878768
146,0.371068574411228
147,0.32267392134133266
148,0.3295046404300068
149,0.4095502342752694
150,0.41445750602847564
151,0.3955698800936003
152,0.3929242282589105
153,0.34796785945946856
154,0.33494463953088205
155,0.35430145942844526
156,0.674902326966507
157,0.6015005036880514
158,0.701769682211137
159,0.6561895371058003
160,0.6644878810780581
161,0.72786932681651
162,0.7338134744765288
163,0.7056165962825878
164,0.633677241059589
165,0.611163696514428
166,0.6402654366999554
167,0.6298124543218422
168,0.7157596591948912
169,0.7466439734579302
170,0.7145666771515755
171,0.7169284520708133
172,0.7030754521036539
173,0.7333133217947831
174,0.728043539943027
175,0.7452661026284857
176,0.7369047666631559
177,0.7310246720719761
178,0.7450111714134123
179,0.7588613291720817
180,0.7187865513448001
181,0.6829427328524627
182,0.6795531153055759
183,0.6931133331263971
184,0.7434137977279232
185,0.7340985604486984
186,0.6862538575625957
187,0.6697326164074245
188,0.6915851845486574
189,0.6954501098515291
190,0.6247548940613862
191,0.6590169756741858
192,0.8564585720243303
193,0.8743531041284677
194,0.8577817290481755
195,0.874862920779967
196,0.8412596162505737
197,0.8618024171601859
198,0.8769844084050449
199,0.8410782289366818
200,0.8419156737992466
201,0.8232419228911417
202,0.8485623343275119
203,0.8389349850580305
204,0.6932781724905088
205,0.7356582739689499
206,0.7475038741845595
207,0.7513246370622211
208,0.7487338210620805
209,0.7361709811082116
210,0.7354262905297327
211,0.7505502674355677
212,0.7077639850728793
213,0.6853634759657592
214,0.7537535372375781
215,0.7587030866941362
216,0.6200544748021102
217,0.6676283172460944
218,0.6897556924762129
219,0.6832980577316967
220,0.7058791045880075
221,0.6657138087097514
222,0.68105965547724
223,0.7132270127239582
224,0.7104574380707203
225,0.67805653246671
226,0.7141025275139282
227,0.7057935441133819
228,0.654558064854138
229,0.6665714374803369
230,0.6503541214567103
231,0.6640478159014372
232,0.681598704629807
233,0.6267681303242894
234,0.6618367626618573
235,0.6541266653875227
236,0.6506676439352805
237,0.6332978888052341
238,0.6545897979703084
239,0.6508503856748824
240,0.721678979144913
241,0.7655026428483778
242,0.749094088884819
243,0.7543035776880396
244,0.7730565907445287
245,0.7972699873545117
246,0.810971804081206
247,0.8463970376305723
248,0.7871135749966314
249,0.7460109358297073
250,0.8303298023325759
251,0.8526795123078932
252,0.6798873551387146
253,0.6369827011372737
254,0.6748314508548631
255,0.5511003177530123
256,0.5310913182673764
257,0.5918678813820051
258,0.6644468106032688
259,0.6772976341939106
260,0.6426617900711178
261,0.6227042720004616
262,0.6155061387946961
263,0.6365644455275932
264,0.6860707739302428
265,0.6520307434999639
266,0.7390590087564115
267,0.7749157922014727
268,0.6393970257431595
269,0.7243302504543868
270,0.8027321643375518
271,0.8361797317603016
272,0.7356273610813465
273,0.7686407603146104
274,0.6255902398078812
275,0.6206686518205684
276,0.7017058999373458
277,0.7011420057389416
278,0.7403469402854437
279,0.7102850666820819
280,0.7320095541434091
281,0.7337329011660711
282,0.7349737669840404
283,0.7381281460400535
284,0.7259379988584935
285,0.7318434885189723
286,0.7246718286275551
287,0.7445679297225383
288,0.7504775163042103
289,0.7278294597743838
290,0.717933645663241
291,0.7545564350254433
292,0.7692915587775444
293,0.8000849246993482
294,0.8008677567507138
295,0.8045091557261077
296,0.8176082872953383
297,0.7624500947266162
298,0.7461091008141486
299,0.7819170850577822
300,0.7617177719072612
301,0.7984420805645291
302,0.8068003728614072
303,0.8055996439551043
304,0.7917654600785958
305,0.7829441927233309
306,0.7385660234789797
307,0.7518066665448683
308,0.748347939554588
309,0.788602845980316
310,0.8009790765642455
311,0.7958848072023667
312,0.6799003639011715
313,0.7040529085288978
314,0.7100512755599256
315,0.6811274575086987
316,0.6847082119390842
317,0.6573197120005475
318,0.7059743038726602
319,0.6949957187198357
320,0.6829469457646606
321,0.6848352979204875
322,0.6858359347343702
323,0.682449708277199
324,0.7302507702659666
325,0.7447950799882928
326,0.7972840320343386
327,0.7939857206686833
328,0.7938806210155532
329,0.8181557538789076
330,0.802973358065254
331,0.8132544527329653
332,0.8024523360313537
333,0.8017570487701133
334,0.7737501640140625
335,0.7866448118559739
336,0.7584152008923297
337,0.7632188921468122
338,0.7795922354370952
339,0.7310000334451608
340,0.7317300067207593
341,0.7472431550950294
342,0.7297801482017564
343,0.7314564534742785
344,0.7289189882970861
345,0.7378670176558316
346,0.7659498185159697
347,0.7593980940024386
348,0.6561017597924295
349,0.6346965509475342
350,0.632101163034506
351,0.6304279484586369
352,0.5397423554404723
353,0.6080343531316197
354,0.5845507832845672
355,0.5540372702211317
356,0.5586445585527916
357,0.575230123264397
358,0.600824752101241
359,0.6079552345023431
360,0.8681318793030666
361,0.729952215885685
362,0.7712650475326712
363,0.7886109171237676
364,0.8272194862443194
365,0.7600993292904314
366,0.7444895567833278
367,0.8620929755399462
368,0.8077655436771708
369,0.8142666341281459
370,0.8127048894548553
371,0.8728986640463446
372,0.9152522387691848
373,0.7933693150552545
374,0.8135952594114078
375,0.835702283403626
376,0.8340923686917128
377,0.8064202275664355
378,0.7756971886570889
379,0.8055413230988824
380,0.770235550692121
381,0.7327242750960647
382,0.740527991195574
383,0.780392526428376
384,0.7612551677461059
385,0.8239458073189294
386,0.7045128092394247
387,0.6878078391156862
388,0.7063951678010807
389,0.7061066478164812
390,0.6227655514578831
391,0.6476041346863366
392,0.6967155912511349
393,0.7080738408759477
394,0.6771876091960983
395,0.6733039045641954
396,0.7187110589611431
397,0.6787507753729944
398,0.7047682188003387
399,0.38561371112932685
400,0.42846561822846707
401,0.3477250651030549
402,0.3175578809194598
403,0.37442706355742916
404,0.3624921591873129
405,0.3233082730650939
406,0.33039078189696214
407,0.3470002500596201
408,0.3987283383835579
409,0.21533082788282687
410,0.1043892052118478
411,0.32162493942087067
412,0.48657923767120054
413,0.5140395257981207
414,0.5580962512860137
415,0.5557235103120748
416,0.4727989312955334
417,0.4940636170137488
418,0.5331739871808787
419,0.5690509175435664
420,0.5127943242766658
421,0.5313044877191107
422,0.5685550483998689
423,0.592880016371297
424,0.5788459315737643
425,0.7052767968668351
426,0.4962975468645471
427,0.5392590579159888
428,0.7125624625091735
429,0.6282042729119258
430,0.570636968741109
431,0.4831420517127436
432,0.49550685229963365
433,0.6127125096645725
434,0.6246179807754351
435,0.5731750014016175
436,0.5339222408860653
437,0.5857281090348079
438,0.5475823263503421
439,0.5417763754377314
440,0.5445656780215201
441,0.5357753956039346
442,0.5302332136090824
443,0.507157296666888
444,0.5411045297896363
445,0.5915955186336058
446,0.5643906255101918
447,0.5730185152335763
448,0.5980881487676826
449,0.5870313189155955
450,0.6018460866484194
451,0.7597509754278476
452,0.7566626030382266
453,0.7794974282776512
454,0.7608881958170582
455,0.7285394107859355
456,0.6951557986421755
457,0.772639237460719
458,0.806743388395387
459,0.7374527523087189
460,0.7649163121958962
461,0.7868715308291311
462,0.8238650320588531
463,0.8075747112202138
464,0.8765449093779214
465,0.8900090070798696
466,0.9269997672935787
467,0.905245741078378
468,0.8858876301895109
469,0.8474823319548841
470,0.8582783453194939
471,0.8647361084557632
472,0.8194566643268654
473,0.8422154435408354
474,0.8506429204438686
475,0.8617397355021573
476,0.9084974874688696
477,0.7009685587838935
478,0.7019022630122207
479,0.7215615647242237
480,0.7514771794266384
481,0.6640638014567395
482,0.6604532988866649
483,0.6999452415445243
484,0.7170928481249996
485,0.6797570382923602
486,0.6970589470853282
487,0.6889812700376052
488,0.6800637779848768
489,0.7385326374121477
490,0.8280770891859324
491,0.8413541469817765
492,0.8261686727368063
493,0.8145516039237323
494,0.8232278097813258
495,0.8044124198827473
496,0.8226530843978317
497,0.8135790392525565
498,0.7662509708102414
499,0.7713244315701494
500,0.8334256551698043
501,0.8534017383510921
502,0.8539992625246194
503,0.7305740528274782
504,0.7574242097982797
505,0.798822355634629
506,0.7698426308045513
507,0.7888681259902595
508,0.754926730078377
509,0.6808211933586373
510,0.7225120982988394
511,0.6643483367949432
512,0.7291555321791252
513,0.7662946132180799
514,0.7909767186445775
515,0.8214621658899086
516,0.3614376505621997
517,0.39482156914467215
518,0.36034405934785885
519,0.31341047814113676
520,0.2935681454338813
521,0.31424697715203376
522,0.3527371127149931
523,0.35987215186935384
524,0.3726913490441597
525,0.3668845506636873
526,0.38282654987147646
527,0.3793338016336244
528,0.36841280916562813
529,0.6497345315446456
530,0.6061809147414303
531,0.7598264451662147
532,0.7344452838493823
533,0.5315620635142129
534,0.46612674726486436
535,0.5163063207877132
536,0.539620765653719
537,0.6046420738511684
538,0.6862323982701356
539,0.6737586803920639
540,0.6075219521206243
541,0.6896630149186245
542,0.7447511711684061
543,0.7528594935572757
544,0.7717512838343239
545,0.6958728655846705
546,0.6607713677758436
547,0.694630745143358
548,0.6602726285149882
549,0.6995179425764245
550,0.7073000812813992
551,0.7287504498066358
552,0.7159749255780286
553,0.7004655498626962
554,0.728104606231915
555,0.708887316330764
556,0.6890875246387932
557,0.6922574321270486
558,0.7182248249267924
559,0.7109442146347377
560,0.6897694715771053
561,0.696868653959752
562,0.7092905843457478
563,0.6703840809213752
564,0.6896282591712003
565,0.6549562158638182
566,0.6107845109895997
567,0.7009072525786005
568,0.8640666653338919
569,0.9127760153469131
570,0.8694922621671992
571,0.8383346546202096
572,0.8609382172307956
573,0.860305378098328
574,0.8293281344837417
575,0.8166482654055071
576,0.8043378095074878
577,0.8202875097744036
578,0.7262415524160131
579,0.8212011012467891
580,0.831063172368395
581,0.7267201459046181
582,0.7394907923237615
583,0.7230801841640411
584,0.7141073976962916
585,0.7120901716801508
586,0.7225379037513996
587,0.7088269717417275
588,0.7029498514122402
589,0.6911991739462036
590,0.7073219819449902
591,0.7027557985495996
592,0.7422539283053973
593,0.7612616519240676
594,0.6979376316412307
595,0.718869134657714
596,0.6945583488631042
597,0.6971343133089126
598,0.6844571681340693
599,0.6878221862041536
600,0.6776452598198354
601,0.6522759819153017
602,0.6393000093866056
603,0.6900011035195995
604,0.7100171703142242
605,0.6718763740247559
606,0.7170967087821608
607,0.6451912224480002
608,0.6381466153398109
609,0.6494306520339221
610,0.6273295052763288
611,0.5891296787503452
612,0.6022103343806804
613,0.5950288629594869
614,0.6615276663307136
615,0.6302811744927144
616,0.648080659002292
617,0.6658277540555513
618,0.6500413528757043
619,0.6772039509685733
620,0.8362121418694239
621,0.8502005970415667
622,0.8007069019333071
623,0.873590887471545
624,0.7980625617894432
625,0.8074314033428157
626,0.7867080594602427
627,0.7800231417908949
628,0.7713540848437087
629,0.7926562971398224
630,0.8101714419740575
631,0.8167671633099877
632,0.8477042816792649
633,0.6992970991519815
634,0.6204478890925234
635,0.6692111158135713
636,0.7200536167417811
637,0.5366763905963063
638,0.43233717775594405
639,0.5055960742215103
640,0.6146344979052846
641,0.6327534418127686
642,0.678173926418423
643,0.7099582924830453
644,0.6334676069366526
645,0.700674840709988
646,0.7304133535232297
647,0.7370257416973587
648,0.6927775506513313
649,0.7843591434494126
650,0.7134179450540895
651,0.6774774348983489
652,0.7202570859735533
653,0.7497784163706692
654,0.7316674969050111
655,0.7315844396860871
656,0.7501520243830488
657,0.7202188970249068
658,0.7151783441360152
659,0.7148622271489519
660,0.7484665577675933
661,0.6978645502337106
662,0.731683040707302
663,0.7338181940300366
664,0.744165082521983
665,0.7132294268043309
666,0.71223715283555
667,0.705410666338473
668,0.6103770880452313
669,0.725065695541154
670,0.6825362350414526
671,0.7130313429329136
672,0.5930584102020453
673,0.6528886389613625
674,0.7868943086035212
675,0.8248723158366273
676,0.7901678155753434
677,0.7662970121133341
678,0.7697003033401055
679,0.800505269323226
680,0.7747889850569406
681,0.7901313732411436
682,0.8084742573629805
683,0.7695342990776056
684,0.7863276492315496
685,0.7703994140234076
686,0.7723949013687933
687,0.7962007421444557
688,0.7639086899652872
689,0.7450148338910628
690,0.735843628732406
691,0.7370092413163641
692,0.7483590652585408
693,0.7297506920496907
694,0.7120318967327022
695,0.7554120814477044
696,0.7674615835858627
697,0.8045817172857785
698,0.6505879950307474
699,0.6560509043924645
700,0.7057019010962328
701,0.626074444926978
702,0.6154867252273472
703,0.6036790784355912
704,0.6306605555302052
705,0.680872197420428
706,0.6508723587889043
707,0.6574914969260943
708,0.696820324798656
709,0.6679113995063555
710,0.7126648590516842
711,0.7335438182342766
712,0.7952748005219066
713,0.807140891045527
714,0.842045447605687
715,0.7948471164236465
716,0.786217334249059
717,0.7976025619246481
718,0.8159408436649156
719,0.7810793197030177
720,0.7978855074108488
721,0.8093320032754533
722,0.8050472856132669
723,0.8257108524479373
724,0.7620543379804765
725,0.77244567630809
726,0.756176141032002
727,0.7761507535377372
728,0.751086327760548
729,0.7275382978135952
730,0.7676148973712444
731,0.7647203348717289
732,0.7437718590343734
733,0.744472917692546
734,0.7542530242075575
735,0.7405758605628753
736,0.7556583184373181
737,0.6153154234661846
738,0.5882255022192705
739,0.614014086625246
740,0.5960156184468375
741,0.5670387485756376
742,0.5158595389071939
743,0.6055880110845644
744,0.6411445218562941
745,0.6053234208464842
746,0.6144439927888582
747,0.6190748295274926
748,0.5988069777236542
749,0.6301700962397986
